^\\MAC\HOME\DESKTOP\COMP 441 CODE\KELLY DIRECTX MY CODE\ANIMATION EXAMPLE\SPACESHIPCONTROL\GAME.CPP
/c /I"C:\Program Files (x86)\Microsoft DirectX SDK (June 2010)\\Include" /ZI /nologo /W3 /WX- /Od /Oy- /D _MBCS /Gm /EHsc /RTC1 /MDd /GS /fp:precise /Zc:wchar_t /Zc:forScope /Fo"DEBUG\\" /Fd"DEBUG\VC110.PDB" /Gd /TP /analyze- \\MAC\HOME\DESKTOP\COMP 441 CODE\KELLY DIRECTX MY CODE\ANIMATION EXAMPLE\SPACESHIPCONTROL\GAME.CPP
^\\MAC\HOME\DESKTOP\COMP 441 CODE\KELLY DIRECTX MY CODE\ANIMATION EXAMPLE\SPACESHIPCONTROL\GRAPHICS.CPP
/c /I"C:\Program Files (x86)\Microsoft DirectX SDK (June 2010)\\Include" /ZI /nologo /W3 /WX- /Od /Oy- /D _MBCS /Gm /EHsc /RTC1 /MDd /GS /fp:precise /Zc:wchar_t /Zc:forScope /Fo"DEBUG\\" /Fd"DEBUG\VC110.PDB" /Gd /TP /analyze- \\MAC\HOME\DESKTOP\COMP 441 CODE\KELLY DIRECTX MY CODE\ANIMATION EXAMPLE\SPACESHIPCONTROL\GRAPHICS.CPP
^\\MAC\HOME\DESKTOP\COMP 441 CODE\KELLY DIRECTX MY CODE\ANIMATION EXAMPLE\SPACESHIPCONTROL\IMAGE.CPP
/c /I"C:\Program Files (x86)\Microsoft DirectX SDK (June 2010)\\Include" /ZI /nologo /W3 /WX- /Od /Oy- /D _MBCS /Gm /EHsc /RTC1 /MDd /GS /fp:precise /Zc:wchar_t /Zc:forScope /Fo"DEBUG\\" /Fd"DEBUG\VC110.PDB" /Gd /TP /analyze- \\MAC\HOME\DESKTOP\COMP 441 CODE\KELLY DIRECTX MY CODE\ANIMATION EXAMPLE\SPACESHIPCONTROL\IMAGE.CPP
^\\MAC\HOME\DESKTOP\COMP 441 CODE\KELLY DIRECTX MY CODE\ANIMATION EXAMPLE\SPACESHIPCONTROL\INPUT.CPP
/c /I"C:\Program Files (x86)\Microsoft DirectX SDK (June 2010)\\Include" /ZI /nologo /W3 /WX- /Od /Oy- /D _MBCS /Gm /EHsc /RTC1 /MDd /GS /fp:precise /Zc:wchar_t /Zc:forScope /Fo"DEBUG\\" /Fd"DEBUG\VC110.PDB" /Gd /TP /analyze- \\MAC\HOME\DESKTOP\COMP 441 CODE\KELLY DIRECTX MY CODE\ANIMATION EXAMPLE\SPACESHIPCONTROL\INPUT.CPP
^\\MAC\HOME\DESKTOP\COMP 441 CODE\KELLY DIRECTX MY CODE\ANIMATION EXAMPLE\SPACESHIPCONTROL\SPACEWAR.CPP
/c /I"C:\Program Files (x86)\Microsoft DirectX SDK (June 2010)\\Include" /ZI /nologo /W3 /WX- /Od /Oy- /D _MBCS /Gm /EHsc /RTC1 /MDd /GS /fp:precise /Zc:wchar_t /Zc:forScope /Fo"DEBUG\\" /Fd"DEBUG\VC110.PDB" /Gd /TP /analyze- \\MAC\HOME\DESKTOP\COMP 441 CODE\KELLY DIRECTX MY CODE\ANIMATION EXAMPLE\SPACESHIPCONTROL\SPACEWAR.CPP
^\\MAC\HOME\DESKTOP\COMP 441 CODE\KELLY DIRECTX MY CODE\ANIMATION EXAMPLE\SPACESHIPCONTROL\TEXTUREMANAGER.CPP
/c /I"C:\Program Files (x86)\Microsoft DirectX SDK (June 2010)\\Include" /ZI /nologo /W3 /WX- /Od /Oy- /D _MBCS /Gm /EHsc /RTC1 /MDd /GS /fp:precise /Zc:wchar_t /Zc:forScope /Fo"DEBUG\\" /Fd"DEBUG\VC110.PDB" /Gd /TP /analyze- \\MAC\HOME\DESKTOP\COMP 441 CODE\KELLY DIRECTX MY CODE\ANIMATION EXAMPLE\SPACESHIPCONTROL\TEXTUREMANAGER.CPP
^\\MAC\HOME\DESKTOP\COMP 441 CODE\KELLY DIRECTX MY CODE\ANIMATION EXAMPLE\SPACESHIPCONTROL\WINMAIN.CPP
/c /I"C:\Program Files (x86)\Microsoft DirectX SDK (June 2010)\\Include" /ZI /nologo /W3 /WX- /Od /Oy- /D _MBCS /Gm /EHsc /RTC1 /MDd /GS /fp:precise /Zc:wchar_t /Zc:forScope /Fo"DEBUG\\" /Fd"DEBUG\VC110.PDB" /Gd /TP /analyze- \\MAC\HOME\DESKTOP\COMP 441 CODE\KELLY DIRECTX MY CODE\ANIMATION EXAMPLE\SPACESHIPCONTROL\WINMAIN.CPP
^\\MAC\HOME\DESKTOP\COMP 441 CODE\LECTURE CODE\WK 5\ANIMATION EXAMPLE\SPACESHIPCONTROL\GAME.CPP
/c /I"C:\Program Files (x86)\Microsoft DirectX SDK (June 2010)\\Include" /ZI /nologo /W3 /WX- /Od /Oy- /D _MBCS /Gm /EHsc /RTC1 /MDd /GS /fp:precise /Zc:wchar_t /Zc:forScope /Fo"DEBUG\\" /Fd"DEBUG\VC110.PDB" /Gd /TP /analyze- \\MAC\HOME\DESKTOP\COMP 441 CODE\LECTURE CODE\WK 5\ANIMATION EXAMPLE\SPACESHIPCONTROL\GAME.CPP
^\\MAC\HOME\DESKTOP\COMP 441 CODE\LECTURE CODE\WK 5\ANIMATION EXAMPLE\SPACESHIPCONTROL\GRAPHICS.CPP
/c /I"C:\Program Files (x86)\Microsoft DirectX SDK (June 2010)\\Include" /ZI /nologo /W3 /WX- /Od /Oy- /D _MBCS /Gm /EHsc /RTC1 /MDd /GS /fp:precise /Zc:wchar_t /Zc:forScope /Fo"DEBUG\\" /Fd"DEBUG\VC110.PDB" /Gd /TP /analyze- \\MAC\HOME\DESKTOP\COMP 441 CODE\LECTURE CODE\WK 5\ANIMATION EXAMPLE\SPACESHIPCONTROL\GRAPHICS.CPP
^\\MAC\HOME\DESKTOP\COMP 441 CODE\LECTURE CODE\WK 5\ANIMATION EXAMPLE\SPACESHIPCONTROL\IMAGE.CPP
/c /I"C:\Program Files (x86)\Microsoft DirectX SDK (June 2010)\\Include" /ZI /nologo /W3 /WX- /Od /Oy- /D _MBCS /Gm /EHsc /RTC1 /MDd /GS /fp:precise /Zc:wchar_t /Zc:forScope /Fo"DEBUG\\" /Fd"DEBUG\VC110.PDB" /Gd /TP /analyze- \\MAC\HOME\DESKTOP\COMP 441 CODE\LECTURE CODE\WK 5\ANIMATION EXAMPLE\SPACESHIPCONTROL\IMAGE.CPP
^\\MAC\HOME\DESKTOP\COMP 441 CODE\LECTURE CODE\WK 5\ANIMATION EXAMPLE\SPACESHIPCONTROL\INPUT.CPP
/c /I"C:\Program Files (x86)\Microsoft DirectX SDK (June 2010)\\Include" /ZI /nologo /W3 /WX- /Od /Oy- /D _MBCS /Gm /EHsc /RTC1 /MDd /GS /fp:precise /Zc:wchar_t /Zc:forScope /Fo"DEBUG\\" /Fd"DEBUG\VC110.PDB" /Gd /TP /analyze- \\MAC\HOME\DESKTOP\COMP 441 CODE\LECTURE CODE\WK 5\ANIMATION EXAMPLE\SPACESHIPCONTROL\INPUT.CPP
^\\MAC\HOME\DESKTOP\COMP 441 CODE\LECTURE CODE\WK 5\ANIMATION EXAMPLE\SPACESHIPCONTROL\SPACEWAR.CPP
/c /I"C:\Program Files (x86)\Microsoft DirectX SDK (June 2010)\\Include" /ZI /nologo /W3 /WX- /Od /Oy- /D _MBCS /Gm /EHsc /RTC1 /MDd /GS /fp:precise /Zc:wchar_t /Zc:forScope /Fo"DEBUG\\" /Fd"DEBUG\VC110.PDB" /Gd /TP /analyze- \\MAC\HOME\DESKTOP\COMP 441 CODE\LECTURE CODE\WK 5\ANIMATION EXAMPLE\SPACESHIPCONTROL\SPACEWAR.CPP
^\\MAC\HOME\DESKTOP\COMP 441 CODE\LECTURE CODE\WK 5\ANIMATION EXAMPLE\SPACESHIPCONTROL\TEXTUREMANAGER.CPP
/c /I"C:\Program Files (x86)\Microsoft DirectX SDK (June 2010)\\Include" /ZI /nologo /W3 /WX- /Od /Oy- /D _MBCS /Gm /EHsc /RTC1 /MDd /GS /fp:precise /Zc:wchar_t /Zc:forScope /Fo"DEBUG\\" /Fd"DEBUG\VC110.PDB" /Gd /TP /analyze- \\MAC\HOME\DESKTOP\COMP 441 CODE\LECTURE CODE\WK 5\ANIMATION EXAMPLE\SPACESHIPCONTROL\TEXTUREMANAGER.CPP
^\\MAC\HOME\DESKTOP\COMP 441 CODE\LECTURE CODE\WK 5\ANIMATION EXAMPLE\SPACESHIPCONTROL\WINMAIN.CPP
/c /I"C:\Program Files (x86)\Microsoft DirectX SDK (June 2010)\\Include" /ZI /nologo /W3 /WX- /Od /Oy- /D _MBCS /Gm /EHsc /RTC1 /MDd /GS /fp:precise /Zc:wchar_t /Zc:forScope /Fo"DEBUG\\" /Fd"DEBUG\VC110.PDB" /Gd /TP /analyze- \\MAC\HOME\DESKTOP\COMP 441 CODE\LECTURE CODE\WK 5\ANIMATION EXAMPLE\SPACESHIPCONTROL\WINMAIN.CPP
^\\MAC\HOME\DESKTOP\COMP 441 CODE\LECTURE CODE\WK 6\ANIMATION EXAMPLE\SPACESHIPCONTROL\GAME.CPP
/c /I"C:\Program Files (x86)\Microsoft DirectX SDK (June 2010)\\Include" /ZI /nologo /W3 /WX- /Od /Oy- /D _MBCS /Gm /EHsc /RTC1 /MDd /GS /fp:precise /Zc:wchar_t /Zc:forScope /Fo"DEBUG\\" /Fd"DEBUG\VC110.PDB" /Gd /TP /analyze- \\MAC\HOME\DESKTOP\COMP 441 CODE\LECTURE CODE\WK 6\ANIMATION EXAMPLE\SPACESHIPCONTROL\GAME.CPP
^\\MAC\HOME\DESKTOP\COMP 441 CODE\LECTURE CODE\WK 6\ANIMATION EXAMPLE\SPACESHIPCONTROL\GRAPHICS.CPP
/c /I"C:\Program Files (x86)\Microsoft DirectX SDK (June 2010)\\Include" /ZI /nologo /W3 /WX- /Od /Oy- /D _MBCS /Gm /EHsc /RTC1 /MDd /GS /fp:precise /Zc:wchar_t /Zc:forScope /Fo"DEBUG\\" /Fd"DEBUG\VC110.PDB" /Gd /TP /analyze- \\MAC\HOME\DESKTOP\COMP 441 CODE\LECTURE CODE\WK 6\ANIMATION EXAMPLE\SPACESHIPCONTROL\GRAPHICS.CPP
^\\MAC\HOME\DESKTOP\COMP 441 CODE\LECTURE CODE\WK 6\ANIMATION EXAMPLE\SPACESHIPCONTROL\IMAGE.CPP
/c /I"C:\Program Files (x86)\Microsoft DirectX SDK (June 2010)\\Include" /ZI /nologo /W3 /WX- /Od /Oy- /D _MBCS /Gm /EHsc /RTC1 /MDd /GS /fp:precise /Zc:wchar_t /Zc:forScope /Fo"DEBUG\\" /Fd"DEBUG\VC110.PDB" /Gd /TP /analyze- \\MAC\HOME\DESKTOP\COMP 441 CODE\LECTURE CODE\WK 6\ANIMATION EXAMPLE\SPACESHIPCONTROL\IMAGE.CPP
^\\MAC\HOME\DESKTOP\COMP 441 CODE\LECTURE CODE\WK 6\ANIMATION EXAMPLE\SPACESHIPCONTROL\INPUT.CPP
/c /I"C:\Program Files (x86)\Microsoft DirectX SDK (June 2010)\\Include" /ZI /nologo /W3 /WX- /Od /Oy- /D _MBCS /Gm /EHsc /RTC1 /MDd /GS /fp:precise /Zc:wchar_t /Zc:forScope /Fo"DEBUG\\" /Fd"DEBUG\VC110.PDB" /Gd /TP /analyze- \\MAC\HOME\DESKTOP\COMP 441 CODE\LECTURE CODE\WK 6\ANIMATION EXAMPLE\SPACESHIPCONTROL\INPUT.CPP
^\\MAC\HOME\DESKTOP\COMP 441 CODE\LECTURE CODE\WK 6\ANIMATION EXAMPLE\SPACESHIPCONTROL\SPACEWAR.CPP
/c /I"C:\Program Files (x86)\Microsoft DirectX SDK (June 2010)\\Include" /ZI /nologo /W3 /WX- /Od /Oy- /D _MBCS /Gm /EHsc /RTC1 /MDd /GS /fp:precise /Zc:wchar_t /Zc:forScope /Fo"DEBUG\\" /Fd"DEBUG\VC110.PDB" /Gd /TP /analyze- \\MAC\HOME\DESKTOP\COMP 441 CODE\LECTURE CODE\WK 6\ANIMATION EXAMPLE\SPACESHIPCONTROL\SPACEWAR.CPP
^\\MAC\HOME\DESKTOP\COMP 441 CODE\LECTURE CODE\WK 6\ANIMATION EXAMPLE\SPACESHIPCONTROL\TEXTUREMANAGER.CPP
/c /I"C:\Program Files (x86)\Microsoft DirectX SDK (June 2010)\\Include" /ZI /nologo /W3 /WX- /Od /Oy- /D _MBCS /Gm /EHsc /RTC1 /MDd /GS /fp:precise /Zc:wchar_t /Zc:forScope /Fo"DEBUG\\" /Fd"DEBUG\VC110.PDB" /Gd /TP /analyze- \\MAC\HOME\DESKTOP\COMP 441 CODE\LECTURE CODE\WK 6\ANIMATION EXAMPLE\SPACESHIPCONTROL\TEXTUREMANAGER.CPP
^\\MAC\HOME\DESKTOP\COMP 441 CODE\LECTURE CODE\WK 6\ANIMATION EXAMPLE\SPACESHIPCONTROL\WINMAIN.CPP
/c /I"C:\Program Files (x86)\Microsoft DirectX SDK (June 2010)\\Include" /ZI /nologo /W3 /WX- /Od /Oy- /D _MBCS /Gm /EHsc /RTC1 /MDd /GS /fp:precise /Zc:wchar_t /Zc:forScope /Fo"DEBUG\\" /Fd"DEBUG\VC110.PDB" /Gd /TP /analyze- \\MAC\HOME\DESKTOP\COMP 441 CODE\LECTURE CODE\WK 6\ANIMATION EXAMPLE\SPACESHIPCONTROL\WINMAIN.CPP
^C:\USERS\COVATTORH1\DOCUMENTS\JUNIOR 1ST SEMESTER\GAME DEVELOPMENT 1\SUPERSNAKE\SPACESHIPCONTROL\GAME.CPP
/c /I"C:\Program Files (x86)\Microsoft DirectX SDK (June 2010)\\Include" /ZI /nologo /W3 /WX- /Od /Oy- /D _MBCS /Gm /EHsc /RTC1 /MDd /GS /fp:precise /Zc:wchar_t /Zc:forScope /Fo"DEBUG\\" /Fd"DEBUG\VC110.PDB" /Gd /TP /analyze- C:\USERS\COVATTORH1\DOCUMENTS\JUNIOR 1ST SEMESTER\GAME DEVELOPMENT 1\SUPERSNAKE\SPACESHIPCONTROL\GAME.CPP
^C:\USERS\COVATTORH1\DOCUMENTS\JUNIOR 1ST SEMESTER\GAME DEVELOPMENT 1\SUPERSNAKE\SPACESHIPCONTROL\GRAPHICS.CPP
/c /I"C:\Program Files (x86)\Microsoft DirectX SDK (June 2010)\\Include" /ZI /nologo /W3 /WX- /Od /Oy- /D _MBCS /Gm /EHsc /RTC1 /MDd /GS /fp:precise /Zc:wchar_t /Zc:forScope /Fo"DEBUG\\" /Fd"DEBUG\VC110.PDB" /Gd /TP /analyze- C:\USERS\COVATTORH1\DOCUMENTS\JUNIOR 1ST SEMESTER\GAME DEVELOPMENT 1\SUPERSNAKE\SPACESHIPCONTROL\GRAPHICS.CPP
^C:\USERS\COVATTORH1\DOCUMENTS\JUNIOR 1ST SEMESTER\GAME DEVELOPMENT 1\SUPERSNAKE\SPACESHIPCONTROL\IMAGE.CPP
/c /I"C:\Program Files (x86)\Microsoft DirectX SDK (June 2010)\\Include" /ZI /nologo /W3 /WX- /Od /Oy- /D _MBCS /Gm /EHsc /RTC1 /MDd /GS /fp:precise /Zc:wchar_t /Zc:forScope /Fo"DEBUG\\" /Fd"DEBUG\VC110.PDB" /Gd /TP /analyze- C:\USERS\COVATTORH1\DOCUMENTS\JUNIOR 1ST SEMESTER\GAME DEVELOPMENT 1\SUPERSNAKE\SPACESHIPCONTROL\IMAGE.CPP
^C:\USERS\COVATTORH1\DOCUMENTS\JUNIOR 1ST SEMESTER\GAME DEVELOPMENT 1\SUPERSNAKE\SPACESHIPCONTROL\INPUT.CPP
/c /I"C:\Program Files (x86)\Microsoft DirectX SDK (June 2010)\\Include" /ZI /nologo /W3 /WX- /Od /Oy- /D _MBCS /Gm /EHsc /RTC1 /MDd /GS /fp:precise /Zc:wchar_t /Zc:forScope /Fo"DEBUG\\" /Fd"DEBUG\VC110.PDB" /Gd /TP /analyze- C:\USERS\COVATTORH1\DOCUMENTS\JUNIOR 1ST SEMESTER\GAME DEVELOPMENT 1\SUPERSNAKE\SPACESHIPCONTROL\INPUT.CPP
^C:\USERS\COVATTORH1\DOCUMENTS\JUNIOR 1ST SEMESTER\GAME DEVELOPMENT 1\SUPERSNAKE\SPACESHIPCONTROL\SPACEWAR.CPP
/c /I"C:\Program Files (x86)\Microsoft DirectX SDK (June 2010)\\Include" /ZI /nologo /W3 /WX- /Od /Oy- /D _MBCS /Gm /EHsc /RTC1 /MDd /GS /fp:precise /Zc:wchar_t /Zc:forScope /Fo"DEBUG\\" /Fd"DEBUG\VC110.PDB" /Gd /TP /analyze- C:\USERS\COVATTORH1\DOCUMENTS\JUNIOR 1ST SEMESTER\GAME DEVELOPMENT 1\SUPERSNAKE\SPACESHIPCONTROL\SPACEWAR.CPP
^C:\USERS\COVATTORH1\DOCUMENTS\JUNIOR 1ST SEMESTER\GAME DEVELOPMENT 1\SUPERSNAKE\SPACESHIPCONTROL\TEXTUREMANAGER.CPP
/c /I"C:\Program Files (x86)\Microsoft DirectX SDK (June 2010)\\Include" /ZI /nologo /W3 /WX- /Od /Oy- /D _MBCS /Gm /EHsc /RTC1 /MDd /GS /fp:precise /Zc:wchar_t /Zc:forScope /Fo"DEBUG\\" /Fd"DEBUG\VC110.PDB" /Gd /TP /analyze- C:\USERS\COVATTORH1\DOCUMENTS\JUNIOR 1ST SEMESTER\GAME DEVELOPMENT 1\SUPERSNAKE\SPACESHIPCONTROL\TEXTUREMANAGER.CPP
^C:\USERS\COVATTORH1\DOCUMENTS\JUNIOR 1ST SEMESTER\GAME DEVELOPMENT 1\SUPERSNAKE\SPACESHIPCONTROL\WINMAIN.CPP
/c /I"C:\Program Files (x86)\Microsoft DirectX SDK (June 2010)\\Include" /ZI /nologo /W3 /WX- /Od /Oy- /D _MBCS /Gm /EHsc /RTC1 /MDd /GS /fp:precise /Zc:wchar_t /Zc:forScope /Fo"DEBUG\\" /Fd"DEBUG\VC110.PDB" /Gd /TP /analyze- C:\USERS\COVATTORH1\DOCUMENTS\JUNIOR 1ST SEMESTER\GAME DEVELOPMENT 1\SUPERSNAKE\SPACESHIPCONTROL\WINMAIN.CPP
^C:\USERS\COVATTORH1\DOCUMENTS\JUNIOR 1ST SEMESTER\GAME DEVELOPMENT 1\SUPER SNAKE REPOSITORY\SUPERSNAKE\SPACESHIPCONTROL\GAME.CPP
/c /I"C:\Program Files (x86)\Microsoft DirectX SDK (June 2010)\\Include" /ZI /nologo /W3 /WX- /Od /Oy- /D _MBCS /Gm /EHsc /RTC1 /MDd /GS /fp:precise /Zc:wchar_t /Zc:forScope /Fo"DEBUG\\" /Fd"DEBUG\VC110.PDB" /Gd /TP /analyze- C:\USERS\COVATTORH1\DOCUMENTS\JUNIOR 1ST SEMESTER\GAME DEVELOPMENT 1\SUPER SNAKE REPOSITORY\SUPERSNAKE\SPACESHIPCONTROL\GAME.CPP
^C:\USERS\COVATTORH1\DOCUMENTS\JUNIOR 1ST SEMESTER\GAME DEVELOPMENT 1\SUPER SNAKE REPOSITORY\SUPERSNAKE\SPACESHIPCONTROL\GRAPHICS.CPP
/c /I"C:\Program Files (x86)\Microsoft DirectX SDK (June 2010)\\Include" /ZI /nologo /W3 /WX- /Od /Oy- /D _MBCS /Gm /EHsc /RTC1 /MDd /GS /fp:precise /Zc:wchar_t /Zc:forScope /Fo"DEBUG\\" /Fd"DEBUG\VC110.PDB" /Gd /TP /analyze- C:\USERS\COVATTORH1\DOCUMENTS\JUNIOR 1ST SEMESTER\GAME DEVELOPMENT 1\SUPER SNAKE REPOSITORY\SUPERSNAKE\SPACESHIPCONTROL\GRAPHICS.CPP
^C:\USERS\COVATTORH1\DOCUMENTS\JUNIOR 1ST SEMESTER\GAME DEVELOPMENT 1\SUPER SNAKE REPOSITORY\SUPERSNAKE\SPACESHIPCONTROL\IMAGE.CPP
/c /I"C:\Program Files (x86)\Microsoft DirectX SDK (June 2010)\\Include" /ZI /nologo /W3 /WX- /Od /Oy- /D _MBCS /Gm /EHsc /RTC1 /MDd /GS /fp:precise /Zc:wchar_t /Zc:forScope /Fo"DEBUG\\" /Fd"DEBUG\VC110.PDB" /Gd /TP /analyze- C:\USERS\COVATTORH1\DOCUMENTS\JUNIOR 1ST SEMESTER\GAME DEVELOPMENT 1\SUPER SNAKE REPOSITORY\SUPERSNAKE\SPACESHIPCONTROL\IMAGE.CPP
^C:\USERS\COVATTORH1\DOCUMENTS\JUNIOR 1ST SEMESTER\GAME DEVELOPMENT 1\SUPER SNAKE REPOSITORY\SUPERSNAKE\SPACESHIPCONTROL\INPUT.CPP
/c /I"C:\Program Files (x86)\Microsoft DirectX SDK (June 2010)\\Include" /ZI /nologo /W3 /WX- /Od /Oy- /D _MBCS /Gm /EHsc /RTC1 /MDd /GS /fp:precise /Zc:wchar_t /Zc:forScope /Fo"DEBUG\\" /Fd"DEBUG\VC110.PDB" /Gd /TP /analyze- C:\USERS\COVATTORH1\DOCUMENTS\JUNIOR 1ST SEMESTER\GAME DEVELOPMENT 1\SUPER SNAKE REPOSITORY\SUPERSNAKE\SPACESHIPCONTROL\INPUT.CPP
^C:\USERS\COVATTORH1\DOCUMENTS\JUNIOR 1ST SEMESTER\GAME DEVELOPMENT 1\SUPER SNAKE REPOSITORY\SUPERSNAKE\SPACESHIPCONTROL\SPACEWAR.CPP
/c /I"C:\Program Files (x86)\Microsoft DirectX SDK (June 2010)\\Include" /ZI /nologo /W3 /WX- /Od /Oy- /D _MBCS /Gm /EHsc /RTC1 /MDd /GS /fp:precise /Zc:wchar_t /Zc:forScope /Fo"DEBUG\\" /Fd"DEBUG\VC110.PDB" /Gd /TP /analyze- C:\USERS\COVATTORH1\DOCUMENTS\JUNIOR 1ST SEMESTER\GAME DEVELOPMENT 1\SUPER SNAKE REPOSITORY\SUPERSNAKE\SPACESHIPCONTROL\SPACEWAR.CPP
^C:\USERS\COVATTORH1\DOCUMENTS\JUNIOR 1ST SEMESTER\GAME DEVELOPMENT 1\SUPER SNAKE REPOSITORY\SUPERSNAKE\SPACESHIPCONTROL\TEXTUREMANAGER.CPP
/c /I"C:\Program Files (x86)\Microsoft DirectX SDK (June 2010)\\Include" /ZI /nologo /W3 /WX- /Od /Oy- /D _MBCS /Gm /EHsc /RTC1 /MDd /GS /fp:precise /Zc:wchar_t /Zc:forScope /Fo"DEBUG\\" /Fd"DEBUG\VC110.PDB" /Gd /TP /analyze- C:\USERS\COVATTORH1\DOCUMENTS\JUNIOR 1ST SEMESTER\GAME DEVELOPMENT 1\SUPER SNAKE REPOSITORY\SUPERSNAKE\SPACESHIPCONTROL\TEXTUREMANAGER.CPP
^C:\USERS\COVATTORH1\DOCUMENTS\JUNIOR 1ST SEMESTER\GAME DEVELOPMENT 1\SUPER SNAKE REPOSITORY\SUPERSNAKE\SPACESHIPCONTROL\WINMAIN.CPP
/c /I"C:\Program Files (x86)\Microsoft DirectX SDK (June 2010)\\Include" /ZI /nologo /W3 /WX- /Od /Oy- /D _MBCS /Gm /EHsc /RTC1 /MDd /GS /fp:precise /Zc:wchar_t /Zc:forScope /Fo"DEBUG\\" /Fd"DEBUG\VC110.PDB" /Gd /TP /analyze- C:\USERS\COVATTORH1\DOCUMENTS\JUNIOR 1ST SEMESTER\GAME DEVELOPMENT 1\SUPER SNAKE REPOSITORY\SUPERSNAKE\SPACESHIPCONTROL\WINMAIN.CPP
